public static string DecriptStringAES(string input)
        {
            if (string.IsNullOrEmpty(input))
                return input;
            descifraAes _ws = new descifraAes();
            string key = "Do3VJxoVc9QBzMpk6/Vhh7xH0pqd+784Sva9BjNR6YY=";
            string hmac = "m0sfw6fhuU8vhvJoxZ0r6ZWFZmp26kRh97eihPJntfI=";
            string res = _ws.decryptAes(key, hmac, input);
            if (res.ToString().ToLower() == "keyerror")
                throw new Exception("No se puede desencriptar el siguiente texto:" + input);
            return res;
        }